Studio_game High Scores:
Rick..................... 530
Berserker................ 392
Pickle rick.............. 295
Beth..................... 235
Summer................... 205
Klutz.................... 180
Morty.................... 180
Jerry.................... 112
